{
  "initialProbability": [
    1.0
  ],
  "initialStates": [
    {
      "data": {
        "a": 5,
        "d": 0,
        "i": 0,
        "o": 0,
        "r": 0,
        "s": 15
      }
    }
  ],
  "maxReachIter": 100,
  "pp": {
    "constP": {
      "value": 2
    }
  },
  "sp": {
    "C": 5,
    "M": 5,
    "Mmin": 1,
    "N": 20,
    "alpha": 0.25,
    "beta": 0.45,
    "delta": 0.25,
    "eps_prob": 1e-15,
    "eps_tot_prob": 1e-12,
    "mu": 0.4,
    "omega": 0.5,
    "prism_dump_action_label": true,
    "psi": 0.35,
    "sigma": 0.1,
    "xi": 0.65
  }
}
