{
  "initialProbability": [
    0.5,
    0.5
  ],
  "initialStates": [
    {
      "data": {
        "a": 3,
        "d": 0,
        "i": 0,
        "o": 0,
        "r": 0,
        "s": 17
      }
    },
    {
      "data": {
        "a": 1,
        "d": 0,
        "i": 0,
        "o": 0,
        "r": 0,
        "s": 19
      }
    }
  ],
  "maxReachIter": 100,
  "pp": {
    "constP": {
      "value": 5 
    }
  },
  "sp": {
   "C": 1,
    "M": 5,
    "Mmin": 1,
    "N": 20,
    "alpha": 0.25,
    "beta": 0.45,
    "delta": 0.25,
    "eps_prob": 1e-15,
    "eps_tot_prob": 1e-12,
    "mu": 0.3,
    "omega": 0.5,
    "prism_dump_action_label": true,
    "psi": 0.35,
    "sigma": 0.05,
    "xi": 0.65
  }  
}
